module gitlab.com/zepif/q-timestamptool

go 1.21

require (
	gitlab.com/distributed_lab/figure v2.1.0+incompatible
	gitlab.com/distributed_lab/kit v1.8.3
	gitlab.com/distributed_lab/logan v3.8.0+incompatible
	gitlab.com/q-dev/q-client v1.3.6-x.0.0.20231206135342-9e9ab6258a81
)

require (
	github.com/VictoriaMetrics/fastcache v1.12.2 // indirect
	github.com/bits-and-blooms/bitset v1.10.0 // indirect
	github.com/btcsuite/btcd/btcec/v2 v2.3.2 // indirect
	github.com/certifi/gocertifi v0.0.0-20200922220541-2c3bb06c6054 // indirect
	github.com/cespare/xxhash/v2 v2.3.0 // indirect
	github.com/consensys/bavard v0.1.13 // indirect
	github.com/consensys/gnark-crypto v0.12.1 // indirect
	github.com/crate-crypto/go-kzg-4844 v1.0.0 // indirect
	github.com/deckarep/golang-set v1.8.0 // indirect
	github.com/decred/dcrd/dcrec/secp256k1/v4 v4.2.0 // indirect
	github.com/ethereum/c-kzg-4844 v1.0.0 // indirect
	github.com/ethereum/go-ethereum v1.14.6 // indirect
	github.com/evalphobia/logrus_sentry v0.8.2 // indirect
	github.com/fsnotify/fsnotify v1.6.0 // indirect
	github.com/getsentry/raven-go v0.2.0 // indirect
	github.com/getsentry/sentry-go v0.27.0 // indirect
	github.com/go-errors/errors v1.4.2 // indirect
	github.com/go-ole/go-ole v1.3.0 // indirect
	github.com/go-stack/stack v1.8.1 // indirect
	github.com/golang/snappy v0.0.5-0.20220116011046-fa5810519dcb // indirect
	github.com/google/uuid v1.3.0 // indirect
	github.com/gorilla/websocket v1.5.0 // indirect
	github.com/hashicorp/golang-lru v0.5.5-0.20210104140557-80c98217689d // indirect
	github.com/hashicorp/hcl v1.0.0 // indirect
	github.com/holiman/bloomfilter/v2 v2.0.3 // indirect
	github.com/holiman/uint256 v1.2.4 // indirect
	github.com/huin/goupnp v1.3.0 // indirect
	github.com/jackpal/go-nat-pmp v1.0.2 // indirect
	github.com/kr/text v0.2.0 // indirect
	github.com/magiconair/properties v1.8.5 // indirect
	github.com/mattn/go-runewidth v0.0.14 // indirect
	github.com/mitchellh/mapstructure v1.5.0 // indirect
	github.com/mmcloughlin/addchain v0.4.0 // indirect
	github.com/olekukonko/tablewriter v0.0.5 // indirect
	github.com/pelletier/go-toml v1.9.3 // indirect
	github.com/pkg/errors v0.9.1 // indirect
	github.com/prometheus/tsdb v0.10.0 // indirect
	github.com/rivo/uniseg v0.4.4 // indirect
	github.com/rjeczalik/notify v0.9.3 // indirect
	github.com/rogpeppe/go-internal v1.9.0 // indirect
	github.com/shirou/gopsutil v3.21.11+incompatible // indirect
	github.com/sirupsen/logrus v1.9.0 // indirect
	github.com/spf13/afero v1.6.0 // indirect
	github.com/spf13/cast v1.3.1 // indirect
	github.com/spf13/jwalterweatherman v1.1.0 // indirect
	github.com/spf13/pflag v1.0.5 // indirect
	github.com/spf13/viper v1.8.1 // indirect
	github.com/stretchr/testify v1.9.0 // indirect
	github.com/subosito/gotenv v1.2.0 // indirect
	github.com/supranational/blst v0.3.11 // indirect
	github.com/syndtr/goleveldb v1.0.1-0.20210819022825-2ae1ddf74ef7 // indirect
	github.com/tklauser/go-sysconf v0.3.12 // indirect
	github.com/tklauser/numcpus v0.6.1 // indirect
	github.com/urfave/cli/v2 v2.25.7 // indirect
	github.com/yusufpapurcu/wmi v1.2.2 // indirect
	gitlab.com/q-dev/system-contracts v1.3.0-rc.1 // indirect
	golang.org/x/crypto v0.22.0 // indirect
	golang.org/x/net v0.24.0 // indirect
	golang.org/x/sync v0.7.0 // indirect
	golang.org/x/sys v0.20.0 // indirect
	golang.org/x/text v0.14.0 // indirect
	gopkg.in/check.v1 v1.0.0-20201130134442-10cb98267c6c // indirect
	gopkg.in/ini.v1 v1.67.0 // indirect
	gopkg.in/natefinch/npipe.v2 v2.0.0-20160621034901-c1b8fa8bdcce // indirect
	gopkg.in/yaml.v2 v2.4.0 // indirect
	rsc.io/tmplfunc v0.0.3 // indirect
)

exclude gitlab.com/q-dev/q-client v1.9.22-0.20211124080536-fe063185527d

replace gitlab.com/q-dev/system-contracts v1.3.0-rc.1 => gitlab.com/q-dev/system-contract-bindings-go v0.1.1-rc.2
